{
  "original": [
    "25-45-1",
    "25-3-6",
    "25-3-7",
    "25-29-4",
    "25-19",
    "25-37-25",
    "25-46-0",
    "25-46-1",
    "25-46-2",
    "25-46-3",
    "25-46-4",
    "25-46-5",
    "25-46-6",
    "25-46-7",
    "25-28-10",
    "25-16-18",
    "25-16-19",
    "25-16-20",
    "25-16-21",
    "25-16-22",
    "25-16-23",
    "25-18-7",
    "25-18-8",
    "25-17-8",
    "25-17-9",
    "25-17-10",
    "25-21-2",
    "28-33-18",
    "28-33-19",
    "28-33-20",
    "28-33-25",
    "28-5-37",
    "28-5-44",
    "28-5-45",
    "28-5-46",
    "28-5-47",
    "28-5-48",
    "28-34-16",
    "28-0-94",
    "28-6-26",
    "28-6-27",
    "28-6-28",
    "28-6-29",
    "28-6-30",
    "28-6-31",
    "28-6-32",
    "28-6-33",
    "28-6-34",
    "28-6-35",
    "28-6-36",
    "28-6-46",
    "28-6-47",
    "28-9-17",
    "28-36-71",
    "28-32-24",
    "28-16-24",
    "28-14-48",
    "31-35-20",
    "31-35-21",
    "31-35-22",
    "31-40-0",
    "31-42-6",
    "31-28-12",
    "31-28-22",
    "31-28-23",
    "31-28-24",
    "31-28-29",
    "31-28-30",
    "31-28-31",
    "31-28-32",
    "31-28-33",
    "31-28-34",
    "31-44-10",
    "31-1-20"
  ],
  "exegesis": [
    "34-45-1",
    "34-3-6",
    "34-3-7",
    "34-29-4",
    "34-19",
    "34-37-25",
    "34-46-0",
    "34-46-1",
    "34-46-2",
    "34-46-3",
    "34-46-4",
    "34-46-5",
    "34-46-6",
    "34-46-7",
    "34-28-10",
    "34-16-18",
    "34-16-19",
    "34-16-20",
    "34-16-21",
    "34-16-22",
    "34-16-23",
    "34-18-7",
    "34-18-8",
    "34-17-8",
    "34-17-9",
    "34-17-10",
    "34-21-2",
    "36-33-18",
    "36-33-19",
    "36-33-20",
    "36-33-25",
    "36-5-37",
    "36-5-44",
    "36-5-45",
    "36-5-46",
    "36-5-47",
    "36-5-48",
    "36-34-16",
    "36-0-94",
    "36-6-26",
    "36-6-27",
    "36-6-28",
    "36-6-29",
    "36-6-30",
    "36-6-31",
    "36-6-32",
    "36-6-33",
    "36-6-34",
    "36-6-35",
    "36-6-36",
    "36-6-46",
    "36-6-47",
    "36-9-17",
    "36-36-71",
    "36-32-24",
    "36-16-24",
    "36-14-48",
    "39-37-20",
    "39-37-21",
    "39-37-22",
    "39-42-0",
    "39-44-6",
    "39-30-12",
    "39-30-22",
    "39-30-23",
    "39-30-24",
    "39-30-29",
    "39-30-30",
    "39-30-31",
    "39-30-32",
    "39-30-33",
    "39-30-34",
    "39-46-10",
    "39-3-20"
  ]
}